{
  "project_info": {
    "project_number": "368696538597",
    "firebase_url": "https://educandos-dd191.firebaseio.com",
    "project_id": "educandos-dd191",
    "storage_bucket": "educandos-dd191.appspot.com"
  },
  "client": [
    {
      "client_info": {
        "mobilesdk_app_id": "1:368696538597:android:c1fb60cae414f01d",
        "android_client_info": {
          "package_name": "ar.com.pmpbsolutions.alumnos.unificado.EduMobile"
        }
      },
      "oauth_client": [
        {
          "client_id": "368696538597-ti5avcofrgqbvn8d4rhj3snueiklold9.apps.googleusercontent.com",
          "client_type": 3
        }
      ],
      "api_key": [
        {
          "current_key": "AIzaSyBXZkk-pwmBsDCczPgaVMbGfXqAYJtEmxw"
        }
      ],
      "services": {
        "appinvite_service": {
          "other_platform_oauth_client": [
            {
              "client_id": "368696538597-ti5avcofrgqbvn8d4rhj3snueiklold9.apps.googleusercontent.com",
              "client_type": 3
            },
            {
              "client_id": "368696538597-dnj5ig8nem1cnpe62hjue3hpej4ju0a3.apps.googleusercontent.com",
              "client_type": 2,
              "ios_info": {
                "bundle_id": "ar.com.pmpbsolutions.alumnos.unificado.EduMobile",
                "app_store_id": "1454834876"
              }
            }
          ]
        }
      }
    },
    {
      "client_info": {
        "mobilesdk_app_id": "1:368696538597:android:cf0fb3b938d427ef",
        "android_client_info": {
          "package_name": "ar.com.pmpbsolutions.preceptores.EduMobile"
        }
      },
      "oauth_client": [
        {
          "client_id": "368696538597-ti5avcofrgqbvn8d4rhj3snueiklold9.apps.googleusercontent.com",
          "client_type": 3
        }
      ],
      "api_key": [
        {
          "current_key": "AIzaSyBXZkk-pwmBsDCczPgaVMbGfXqAYJtEmxw"
        }
      ],
      "services": {
        "appinvite_service": {
          "other_platform_oauth_client": [
            {
              "client_id": "368696538597-ti5avcofrgqbvn8d4rhj3snueiklold9.apps.googleusercontent.com",
              "client_type": 3
            },
            {
              "client_id": "368696538597-dnj5ig8nem1cnpe62hjue3hpej4ju0a3.apps.googleusercontent.com",
              "client_type": 2,
              "ios_info": {
                "bundle_id": "ar.com.pmpbsolutions.alumnos.unificado.EduMobile",
                "app_store_id": "1454834876"
              }
            }
          ]
        }
      }
    },
    {
      "client_info": {
        "mobilesdk_app_id": "1:368696538597:android:39ab25dc1ff39539",
        "android_client_info": {
          "package_name": "ar.com.pmpbsolutions.tutores.unificado.EduMobile"
        }
      },
      "oauth_client": [
        {
          "client_id": "368696538597-i39t47dp56kurv8ca2ro4hm1mkp64tsj.apps.googleusercontent.com",
          "client_type": 1,
          "android_info": {
            "package_name": "ar.com.pmpbsolutions.tutores.unificado.EduMobile",
            "certificate_hash": "03d423bf44d22e6b84a3cde344aaf116b2f7c02f"
          }
        },
        {
          "client_id": "368696538597-ti5avcofrgqbvn8d4rhj3snueiklold9.apps.googleusercontent.com",
          "client_type": 3
        }
      ],
      "api_key": [
        {
          "current_key": "AIzaSyBXZkk-pwmBsDCczPgaVMbGfXqAYJtEmxw"
        }
      ],
      "services": {
        "appinvite_service": {
          "other_platform_oauth_client": [
            {
              "client_id": "368696538597-ti5avcofrgqbvn8d4rhj3snueiklold9.apps.googleusercontent.com",
              "client_type": 3
            },
            {
              "client_id": "368696538597-dnj5ig8nem1cnpe62hjue3hpej4ju0a3.apps.googleusercontent.com",
              "client_type": 2,
              "ios_info": {
                "bundle_id": "ar.com.pmpbsolutions.alumnos.unificado.EduMobile",
                "app_store_id": "1454834876"
              }
            }
          ]
        }
      }
    }
  ],
  "configuration_version": "1"
}